{
  "version": "2.3",
  "vulnerabilities": [
    {
      "category": "sast",
      "name": "Hard coded key",
      "message": "Hard coded key",
      "description": "Hard coded cryptographic key found",
      "cve": "102ac67e0975ecec02a056008e0faad8:HARD_CODE_KEY:sbt/src/main/scala/example/Main.scala:12",
      "severity": "Medium",
      "confidence": "High",
      "scanner": {
        "id": "find_sec_bugs",
        "name": "Find Security Bugs"
      },
      "location": {
        "file": "sbt/src/main/scala/example/Main.scala",
        "start_line": 12,
        "end_line": 12,
        "class": "example.Main$",
        "method": "getBytes",
        "dependency": {
          "package": {}
        }
      },
      "identifiers": [
        {
          "type": "find_sec_bugs_type",
          "name": "Find Security Bugs-HARD_CODE_KEY",
          "value": "HARD_CODE_KEY",
          "url": "https://find-sec-bugs.github.io/bugs.htm#HARD_CODE_KEY"
        },
        {
          "type": "cwe",
          "name": "CWE-321",
          "value": "321",
          "url": "https://cwe.mitre.org/data/definitions/321.html"
        }
      ]
    },
    {
      "category": "sast",
      "name": "Cipher with no integrity",
      "message": "Cipher with no integrity",
      "description": "The cipher does not provide data integrity",
      "cve": "22638f20786f979911c3f22f9b30f24f:CIPHER_INTEGRITY:sbt/src/main/scala/example/Main.scala:13",
      "severity": "Medium",
      "confidence": "High",
      "scanner": {
        "id": "find_sec_bugs",
        "name": "Find Security Bugs"
      },
      "location": {
        "file": "sbt/src/main/scala/example/Main.scala",
        "start_line": 13,
        "end_line": 13,
        "class": "example.Main$",
        "method": "main",
        "dependency": {
          "package": {}
        }
      },
      "identifiers": [
        {
          "type": "find_sec_bugs_type",
          "name": "Find Security Bugs-CIPHER_INTEGRITY",
          "value": "CIPHER_INTEGRITY",
          "url": "https://find-sec-bugs.github.io/bugs.htm#CIPHER_INTEGRITY"
        },
        {
          "type": "cwe",
          "name": "CWE-353",
          "value": "353",
          "url": "https://cwe.mitre.org/data/definitions/353.html"
        }
      ]
    },
    {
      "category": "sast",
      "name": "Predictable pseudorandom number generator",
      "message": "Predictable pseudorandom number generator",
      "description": "This random generator (java.util.Random) is predictable",
      "cve": "818bf5dacb291e15d9e6dc3c5ac32178:PREDICTABLE_RANDOM:maven/src/main/java/com/gitlab/security_products/tests/App.java:47",
      "severity": "Medium",
      "confidence": "Medium",
      "scanner": {
        "id": "find_sec_bugs",
        "name": "Find Security Bugs"
      },
      "location": {
        "file": "maven/src/main/java/com/gitlab/security_products/tests/App.java",
        "start_line": 47,
        "end_line": 47,
        "class": "com.gitlab.security_products.tests.App",
        "method": "generateSecretToken2",
        "dependency": {
          "package": {}
        }
      },
      "identifiers": [
        {
          "type": "find_sec_bugs_type",
          "name": "Find Security Bugs-PREDICTABLE_RANDOM",
          "value": "PREDICTABLE_RANDOM",
          "url": "https://find-sec-bugs.github.io/bugs.htm#PREDICTABLE_RANDOM"
        },
        {
          "type": "cwe",
          "name": "CWE-330",
          "value": "330",
          "url": "https://cwe.mitre.org/data/definitions/330.html"
        }
      ]
    },
    {
      "category": "sast",
      "name": "Cipher with no integrity",
      "message": "Cipher with no integrity",
      "description": "The cipher does not provide data integrity",
      "cve": "e6449b89335daf53c0db4c0219bc1634:CIPHER_INTEGRITY:maven/src/main/java/com/gitlab/security_products/tests/App.java:29",
      "severity": "Medium",
      "confidence": "High",
      "scanner": {
        "id": "find_sec_bugs",
        "name": "Find Security Bugs"
      },
      "location": {
        "file": "maven/src/main/java/com/gitlab/security_products/tests/App.java",
        "start_line": 29,
        "end_line": 29,
        "class": "com.gitlab.security_products.tests.App",
        "method": "insecureCypher",
        "dependency": {
          "package": {}
        }
      },
      "identifiers": [
        {
          "type": "find_sec_bugs_type",
          "name": "Find Security Bugs-CIPHER_INTEGRITY",
          "value": "CIPHER_INTEGRITY",
          "url": "https://find-sec-bugs.github.io/bugs.htm#CIPHER_INTEGRITY"
        },
        {
          "type": "cwe",
          "name": "CWE-353",
          "value": "353",
          "url": "https://cwe.mitre.org/data/definitions/353.html"
        }
      ]
    },
    {
      "category": "sast",
      "name": "Predictable pseudorandom number generator",
      "message": "Predictable pseudorandom number generator",
      "description": "This random generator (java.util.Random) is predictable",
      "cve": "e8ff1d01f74cd372f78da8f5247d3e73:PREDICTABLE_RANDOM:maven/src/main/java/com/gitlab/security_products/tests/App.java:41",
      "severity": "Medium",
      "confidence": "Medium",
      "scanner": {
        "id": "find_sec_bugs",
        "name": "Find Security Bugs"
      },
      "location": {
        "file": "maven/src/main/java/com/gitlab/security_products/tests/App.java",
        "start_line": 41,
        "end_line": 41,
        "class": "com.gitlab.security_products.tests.App",
        "method": "generateSecretToken1",
        "dependency": {
          "package": {}
        }
      },
      "identifiers": [
        {
          "type": "find_sec_bugs_type",
          "name": "Find Security Bugs-PREDICTABLE_RANDOM",
          "value": "PREDICTABLE_RANDOM",
          "url": "https://find-sec-bugs.github.io/bugs.htm#PREDICTABLE_RANDOM"
        },
        {
          "type": "cwe",
          "name": "CWE-330",
          "value": "330",
          "url": "https://cwe.mitre.org/data/definitions/330.html"
        }
      ]
    },
    {
      "category": "sast",
      "name": "ECB mode is insecure",
      "message": "ECB mode is insecure",
      "description": "The cipher uses ECB mode, which provides poor confidentiality for encrypted data",
      "cve": "ea0f905fc76f2739d5f10a1fd1e37a10:ECB_MODE:maven/src/main/java/com/gitlab/security_products/tests/App.java:29",
      "severity": "Medium",
      "confidence": "High",
      "scanner": {
        "id": "find_sec_bugs",
        "name": "Find Security Bugs"
      },
      "location": {
        "file": "maven/src/main/java/com/gitlab/security_products/tests/App.java",
        "start_line": 29,
        "end_line": 29,
        "class": "com.gitlab.security_products.tests.App",
        "method": "insecureCypher",
        "dependency": {
          "package": {}
        }
      },
      "identifiers": [
        {
          "type": "find_sec_bugs_type",
          "name": "Find Security Bugs-ECB_MODE",
          "value": "ECB_MODE",
          "url": "https://find-sec-bugs.github.io/bugs.htm#ECB_MODE"
        },
        {
          "type": "cwe",
          "name": "CWE-327",
          "value": "327",
          "url": "https://cwe.mitre.org/data/definitions/327.html"
        }
      ]
    },
    {
      "category": "sast",
      "message": "Probable insecure usage of temp file/directory.",
      "cve": "python/hardcoded/hardcoded-tmp.py:4ad6d4c40a8c263fc265f3384724014e0a4f8dd6200af83e51ff120420038031:B108",
      "severity": "Medium",
      "confidence": "Medium",
      "scanner": {
        "id": "bandit",
        "name": "Bandit"
      },
      "location": {
        "file": "python/hardcoded/hardcoded-tmp.py",
        "start_line": 10,
        "end_line": 10,
        "dependency": {
          "package": {}
        }
      },
      "identifiers": [
        {
          "type": "bandit_test_id",
          "name": "Bandit Test ID B108",
          "value": "B108",
          "url": "https://docs.openstack.org/bandit/latest/plugins/b108_hardcoded_tmp_directory.html"
        }
      ]
    },
    {
      "category": "sast",
      "message": "Probable insecure usage of temp file/directory.",
      "cve": "python/hardcoded/hardcoded-tmp.py:52865813c884a507be1f152d654245af34aba8a391626d01f1ab6d3f52ec8779:B108",
      "severity": "Medium",
      "confidence": "Medium",
      "scanner": {
        "id": "bandit",
        "name": "Bandit"
      },
      "location": {
        "file": "python/hardcoded/hardcoded-tmp.py",
        "start_line": 1,
        "end_line": 1,
        "dependency": {
          "package": {}
        }
      },
      "identifiers": [
        {
          "type": "bandit_test_id",
          "name": "Bandit Test ID B108",
          "value": "B108",
          "url": "https://docs.openstack.org/bandit/latest/plugins/b108_hardcoded_tmp_directory.html"
        }
      ]
    },
    {
      "category": "sast",
      "message": "Probable insecure usage of temp file/directory.",
      "cve": "python/hardcoded/hardcoded-tmp.py:63dd4d626855555b816985d82c4614a790462a0a3ada89dc58eb97f9c50f3077:B108",
      "severity": "Medium",
      "confidence": "Medium",
      "scanner": {
        "id": "bandit",
        "name": "Bandit"
      },
      "location": {
        "file": "python/hardcoded/hardcoded-tmp.py",
        "start_line": 14,
        "end_line": 14,
        "dependency": {
          "package": {}
        }
      },
      "identifiers": [
        {
          "type": "bandit_test_id",
          "name": "Bandit Test ID B108",
          "value": "B108",
          "url": "https://docs.openstack.org/bandit/latest/plugins/b108_hardcoded_tmp_directory.html"
        }
      ]
    },
    {
      "category": "sast",
      "message": "Use of insecure MD2, MD4, MD5, or SHA1 hash function.",
      "cve": "python/imports/imports-aliases.py:017017b77deb0b8369b6065947833eeea752a92ec8a700db590fece3e934cf0d:B303",
      "severity": "Medium",
      "confidence": "High",
      "scanner": {
        "id": "bandit",
        "name": "Bandit"
      },
      "location": {
        "file": "python/imports/imports-aliases.py",
        "start_line": 13,
        "end_line": 13,
        "dependency": {
          "package": {}
        }
      },
      "identifiers": [
        {
          "type": "bandit_test_id",
          "name": "Bandit Test ID B303",
          "value": "B303"
        }
      ]
    },
    {
      "category": "sast",
      "message": "Use of insecure MD2, MD4, MD5, or SHA1 hash function.",
      "cve": "python/imports/imports-aliases.py:45fc8c53aea7b84f06bc4e590cc667678d6073c4c8a1d471177ca2146fb22db2:B303",
      "severity": "Medium",
      "confidence": "High",
      "scanner": {
        "id": "bandit",
        "name": "Bandit"
      },
      "location": {
        "file": "python/imports/imports-aliases.py",
        "start_line": 14,
        "end_line": 14,
        "dependency": {
          "package": {}
        }
      },
      "identifiers": [
        {
          "type": "bandit_test_id",
          "name": "Bandit Test ID B303",
          "value": "B303"
        }
      ]
    },
    {
      "category": "sast",
      "message": "Pickle and modules that wrap it can be unsafe when used to deserialize untrusted data, possible security issue.",
      "cve": "python/imports/imports-aliases.py:5f200d47291e7bbd8352db23019b85453ca048dd98ea0c291260fa7d009963a4:B301",
      "severity": "Medium",
      "confidence": "High",
      "scanner": {
        "id": "bandit",
        "name": "Bandit"
      },
      "location": {
        "file": "python/imports/imports-aliases.py",
        "start_line": 15,
        "end_line": 15,
        "dependency": {
          "package": {}
        }
      },
      "identifiers": [
        {
          "type": "bandit_test_id",
          "name": "Bandit Test ID B301",
          "value": "B301"
        }
      ]
    },
    {
      "category": "sast",
      "message": "Use of insecure MD2, MD4, MD5, or SHA1 hash function.",
      "cve": "python/imports/imports-aliases.py:a7173c43ae66bd07466632d819d450e0071e02dbf782763640d1092981f9631b:B303",
      "severity": "Medium",
      "confidence": "High",
      "scanner": {
        "id": "bandit",
        "name": "Bandit"
      },
      "location": {
        "file": "python/imports/imports-aliases.py",
        "start_line": 12,
        "end_line": 12,
        "dependency": {
          "package": {}
        }
      },
      "identifiers": [
        {
          "type": "bandit_test_id",
          "name": "Bandit Test ID B303",
          "value": "B303"
        }
      ]
    },
    {
      "category": "sast",
      "message": "Use of insecure MD2, MD4, MD5, or SHA1 hash function.",
      "cve": "python/imports/imports-aliases.py:cb203b465dffb0cb3a8e8bd8910b84b93b0a5995a938e4b903dbb0cd6ffa1254:B303",
      "severity": "Medium",
      "confidence": "High",
      "scanner": {
        "id": "bandit",
        "name": "Bandit"
      },
      "location": {
        "file": "python/imports/imports-aliases.py",
        "start_line": 11,
        "end_line": 11,
        "dependency": {
          "package": {}
        }
      },
      "identifiers": [
        {
          "type": "bandit_test_id",
          "name": "Bandit Test ID B303",
          "value": "B303"
        }
      ]
    },
    {
      "category": "sast",
      "name": "phpinfo() function detected",
      "message": "phpinfo() function detected",
      "cve": "php/vuln.php:PHPCS_SecurityAudit.BadFunctions.Phpinfos.WarnPhpinfo",
      "severity": "Low",
      "scanner": {
        "id": "phpcs_security_audit",
        "name": "phpcs-security-audit v2"
      },
      "location": {
        "file": "php/vuln.php",
        "start_line": 7,
        "dependency": {
          "package": {}
        }
      },
      "identifiers": [
        {
          "type": "phpcs_security_audit_source",
          "name": "PHPCS_SecurityAudit.BadFunctions.Phpinfos.WarnPhpinfo",
          "value": "PHPCS_SecurityAudit.BadFunctions.Phpinfos.WarnPhpinfo"
        }
      ]
    },
    {
      "category": "sast",
      "message": "Possible hardcoded password: 'Admin'",
      "cve": "python/hardcoded/hardcoded-passwords.py:0ffe6f9a322ff44b2b69f5eccda67edb85743cbbec0272b947645acdeb3146b8:B107",
      "severity": "Low",
      "confidence": "Medium",
      "scanner": {
        "id": "bandit",
        "name": "Bandit"
      },
      "location": {
        "file": "python/hardcoded/hardcoded-passwords.py",
        "start_line": 1,
        "end_line": 3,
        "dependency": {
          "package": {}
        }
      },
      "identifiers": [
        {
          "type": "bandit_test_id",
          "name": "Bandit Test ID B107",
          "value": "B107",
          "url": "https://docs.openstack.org/bandit/latest/plugins/b107_hardcoded_password_default.html"
        }
      ]
    },
    {
      "category": "sast",
      "message": "Possible hardcoded password: 'blerg'",
      "cve": "python/hardcoded/hardcoded-passwords.py:4311b06d08df8fa58229b341c531da8e1a31ec4520597bdff920cd5c098d86f9:B105",
      "severity": "Low",
      "confidence": "Medium",
      "scanner": {
        "id": "bandit",
        "name": "Bandit"
      },
      "location": {
        "file": "python/hardcoded/hardcoded-passwords.py",
        "start_line": 24,
        "end_line": 24,
        "dependency": {
          "package": {}
        }
      },
      "identifiers": [
        {
          "type": "bandit_test_id",
          "name": "Bandit Test ID B105",
          "value": "B105",
          "url": "https://docs.openstack.org/bandit/latest/plugins/b105_hardcoded_password_string.html"
        }
      ]
    },
    {
      "category": "sast",
      "message": "Possible hardcoded password: 'blerg'",
      "cve": "python/hardcoded/hardcoded-passwords.py:5f6749dc5b86c774abf8c07b295b8934d7e60861aa0d45de67d633a56342d7b5:B107",
      "severity": "Low",
      "confidence": "Medium",
      "scanner": {
        "id": "bandit",
        "name": "Bandit"
      },
      "location": {
        "file": "python/hardcoded/hardcoded-passwords.py",
        "start_line": 16,
        "end_line": 18,
        "dependency": {
          "package": {}
        }
      },
      "identifiers": [
        {
          "type": "bandit_test_id",
          "name": "Bandit Test ID B107",
          "value": "B107",
          "url": "https://docs.openstack.org/bandit/latest/plugins/b107_hardcoded_password_default.html"
        }
      ]
    },
    {
      "category": "sast",
      "message": "Possible hardcoded password: 'blerg'",
      "cve": "python/hardcoded/hardcoded-passwords.py:63c62a8b7e1e5224439bd26b28030585ac48741e28ca64561a6071080c560a5f:B105",
      "severity": "Low",
      "confidence": "Medium",
      "scanner": {
        "id": "bandit",
        "name": "Bandit"
      },
      "location": {
        "file": "python/hardcoded/hardcoded-passwords.py",
        "start_line": 23,
        "end_line": 23,
        "dependency": {
          "package": {}
        }
      },
      "identifiers": [
        {
          "type": "bandit_test_id",
          "name": "Bandit Test ID B105",
          "value": "B105",
          "url": "https://docs.openstack.org/bandit/latest/plugins/b105_hardcoded_password_string.html"
        }
      ]
    },
    {
      "category": "sast",
      "message": "Possible hardcoded password: 'root'",
      "cve": "python/hardcoded/hardcoded-passwords.py:7431c73a0bc16d94ece2a2e75ef38f302574d42c37ac0c3c38ad0b3bf8a59f10:B105",
      "severity": "Low",
      "confidence": "Medium",
      "scanner": {
        "id": "bandit",
        "name": "Bandit"
      },
      "location": {
        "file": "python/hardcoded/hardcoded-passwords.py",
        "start_line": 5,
        "end_line": 5,
        "dependency": {
          "package": {}
        }
      },
      "identifiers": [
        {
          "type": "bandit_test_id",
          "name": "Bandit Test ID B105",
          "value": "B105",
          "url": "https://docs.openstack.org/bandit/latest/plugins/b105_hardcoded_password_string.html"
        }
      ]
    },
    {
      "category": "sast",
      "message": "Possible hardcoded password: 'blerg'",
      "cve": "python/hardcoded/hardcoded-passwords.py:97c30f1d76d2a88913e3ce9ae74087874d740f87de8af697a9c455f01119f633:B106",
      "severity": "Low",
      "confidence": "Medium",
      "scanner": {
        "id": "bandit",
        "name": "Bandit"
      },
      "location": {
        "file": "python/hardcoded/hardcoded-passwords.py",
        "start_line": 22,
        "end_line": 22,
        "dependency": {
          "package": {}
        }
      },
      "identifiers": [
        {
          "type": "bandit_test_id",
          "name": "Bandit Test ID B106",
          "value": "B106",
          "url": "https://docs.openstack.org/bandit/latest/plugins/b106_hardcoded_password_funcarg.html"
        }
      ]
    },
    {
      "category": "sast",
      "message": "Possible hardcoded password: ''",
      "cve": "python/hardcoded/hardcoded-passwords.py:d2d1857c27caedd49c57bfbcdc23afcc92bd66a22701fcdc632869aab4ca73ee:B105",
      "severity": "Low",
      "confidence": "Medium",
      "scanner": {
        "id": "bandit",
        "name": "Bandit"
      },
      "location": {
        "file": "python/hardcoded/hardcoded-passwords.py",
        "start_line": 9,
        "end_line": 9,
        "dependency": {
          "package": {}
        }
      },
      "identifiers": [
        {
          "type": "bandit_test_id",
          "name": "Bandit Test ID B105",
          "value": "B105",
          "url": "https://docs.openstack.org/bandit/latest/plugins/b105_hardcoded_password_string.html"
        }
      ]
    },
    {
      "category": "sast",
      "message": "Possible hardcoded password: 'ajklawejrkl42348swfgkg'",
      "cve": "python/hardcoded/hardcoded-passwords.py:fb3866215a61393a5c9c32a3b60e2058171a23219c353f722cbd3567acab21d2:B105",
      "severity": "Low",
      "confidence": "Medium",
      "scanner": {
        "id": "bandit",
        "name": "Bandit"
      },
      "location": {
        "file": "python/hardcoded/hardcoded-passwords.py",
        "start_line": 13,
        "end_line": 13,
        "dependency": {
          "package": {}
        }
      },
      "identifiers": [
        {
          "type": "bandit_test_id",
          "name": "Bandit Test ID B105",
          "value": "B105",
          "url": "https://docs.openstack.org/bandit/latest/plugins/b105_hardcoded_password_string.html"
        }
      ]
    },
    {
      "category": "sast",
      "message": "Consider possible security implications associated with Popen module.",
      "cve": "python/imports/imports-aliases.py:2c3e1fa1e54c3c6646e8bcfaee2518153c6799b77587ff8d9a7b0631f6d34785:B404",
      "severity": "Low",
      "confidence": "High",
      "scanner": {
        "id": "bandit",
        "name": "Bandit"
      },
      "location": {
        "file": "python/imports/imports-aliases.py",
        "start_line": 1,
        "end_line": 1,
        "dependency": {
          "package": {}
        }
      },
      "identifiers": [
        {
          "type": "bandit_test_id",
          "name": "Bandit Test ID B404",
          "value": "B404"
        }
      ]
    },
    {
      "category": "sast",
      "message": "Consider possible security implications associated with pickle module.",
      "cve": "python/imports/imports-aliases.py:51b71661dff994bde3529639a727a678c8f5c4c96f00d300913f6d5be1bbdf26:B403",
      "severity": "Low",
      "confidence": "High",
      "scanner": {
        "id": "bandit",
        "name": "Bandit"
      },
      "location": {
        "file": "python/imports/imports-aliases.py",
        "start_line": 7,
        "end_line": 8,
        "dependency": {
          "package": {}
        }
      },
      "identifiers": [
        {
          "type": "bandit_test_id",
          "name": "Bandit Test ID B403",
          "value": "B403"
        }
      ]
    },
    {
      "category": "sast",
      "message": "Consider possible security implications associated with loads module.",
      "cve": "python/imports/imports-aliases.py:6ff02aeb3149c01ab68484d794a94f58d5d3e3bb0d58557ef4153644ea68ea54:B403",
      "severity": "Low",
      "confidence": "High",
      "scanner": {
        "id": "bandit",
        "name": "Bandit"
      },
      "location": {
        "file": "python/imports/imports-aliases.py",
        "start_line": 6,
        "end_line": 6,
        "dependency": {
          "package": {}
        }
      },
      "identifiers": [
        {
          "type": "bandit_test_id",
          "name": "Bandit Test ID B403",
          "value": "B403"
        }
      ]
    },
    {
      "category": "sast",
      "message": "subprocess call with shell=True seems safe, but may be changed in the future, consider rewriting without shell",
      "cve": "python/imports/imports-aliases.py:f99f9721e27537fbcb6699a4cf39c6740d6234d2c6f06cfc2d9ea977313c483d:B602",
      "severity": "Low",
      "confidence": "High",
      "scanner": {
        "id": "bandit",
        "name": "Bandit"
      },
      "location": {
        "file": "python/imports/imports-aliases.py",
        "start_line": 9,
        "end_line": 9,
        "dependency": {
          "package": {}
        }
      },
      "identifiers": [
        {
          "type": "bandit_test_id",
          "name": "Bandit Test ID B602",
          "value": "B602",
          "url": "https://docs.openstack.org/bandit/latest/plugins/b602_subprocess_popen_with_shell_equals_true.html"
        }
      ]
    },
    {
      "category": "sast",
      "message": "Consider possible security implications associated with Popen module.",
      "cve": "python/imports/imports-from.py:0a48de4a3d5348853a03666cb574697e3982998355e7a095a798bd02a5947276:B404",
      "severity": "Low",
      "confidence": "High",
      "scanner": {
        "id": "bandit",
        "name": "Bandit"
      },
      "location": {
        "file": "python/imports/imports-from.py",
        "start_line": 1,
        "end_line": 2,
        "dependency": {
          "package": {}
        }
      },
      "identifiers": [
        {
          "type": "bandit_test_id",
          "name": "Bandit Test ID B404",
          "value": "B404"
        }
      ]
    },
    {
      "category": "sast",
      "message": "Consider possible security implications associated with subprocess module.",
      "cve": "python/imports/imports-from.py:332a12ab1146698f614a905ce6a6a5401497a12281aef200e80522711c69dcf4:B404",
      "severity": "Low",
      "confidence": "High",
      "scanner": {
        "id": "bandit",
        "name": "Bandit"
      },
      "location": {
        "file": "python/imports/imports-from.py",
        "start_line": 6,
        "end_line": 6,
        "dependency": {
          "package": {}
        }
      },
      "identifiers": [
        {
          "type": "bandit_test_id",
          "name": "Bandit Test ID B404",
          "value": "B404"
        }
      ]
    },
    {
      "category": "sast",
      "message": "Consider possible security implications associated with Popen module.",
      "cve": "python/imports/imports-from.py:eb8a0db9cd1a8c1ab39a77e6025021b1261cc2a0b026b2f4a11fca4e0636d8dd:B404",
      "severity": "Low",
      "confidence": "High",
      "scanner": {
        "id": "bandit",
        "name": "Bandit"
      },
      "location": {
        "file": "python/imports/imports-from.py",
        "start_line": 7,
        "end_line": 7,
        "dependency": {
          "package": {}
        }
      },
      "identifiers": [
        {
          "type": "bandit_test_id",
          "name": "Bandit Test ID B404",
          "value": "B404"
        }
      ]
    },
    {
      "category": "sast",
      "message": "Consider possible security implications associated with subprocess module.",
      "cve": "python/imports/imports-function.py:5858400c2f39047787702de44d03361ef8d954c9d14bd54ee1c2bef9e6a7df93:B404",
      "severity": "Low",
      "confidence": "High",
      "scanner": {
        "id": "bandit",
        "name": "Bandit"
      },
      "location": {
        "file": "python/imports/imports-function.py",
        "start_line": 4,
        "end_line": 4,
        "dependency": {
          "package": {}
        }
      },
      "identifiers": [
        {
          "type": "bandit_test_id",
          "name": "Bandit Test ID B404",
          "value": "B404"
        }
      ]
    },
    {
      "category": "sast",
      "message": "Consider possible security implications associated with pickle module.",
      "cve": "python/imports/imports-function.py:dbda3cf4190279d30e0aad7dd137eca11272b0b225e8af4e8bf39682da67d956:B403",
      "severity": "Low",
      "confidence": "High",
      "scanner": {
        "id": "bandit",
        "name": "Bandit"
      },
      "location": {
        "file": "python/imports/imports-function.py",
        "start_line": 2,
        "end_line": 2,
        "dependency": {
          "package": {}
        }
      },
      "identifiers": [
        {
          "type": "bandit_test_id",
          "name": "Bandit Test ID B403",
          "value": "B403"
        }
      ]
    },
    {
      "category": "sast",
      "message": "Consider possible security implications associated with pickle module.",
      "cve": "python/imports/imports-with-importlib.py:c5c6b66dee67ea3d5a34d72ccb77b6752ca1095e18a6d488cdbdba0a48cc8800:B403",
      "severity": "Low",
      "confidence": "High",
      "scanner": {
        "id": "bandit",
        "name": "Bandit"
      },
      "location": {
        "file": "python/imports/imports-with-importlib.py",
        "start_line": 3,
        "end_line": 3,
        "dependency": {
          "package": {}
        }
      },
      "identifiers": [
        {
          "type": "bandit_test_id",
          "name": "Bandit Test ID B403",
          "value": "B403"
        }
      ]
    },
    {
      "category": "sast",
      "message": "Consider possible security implications associated with subprocess module.",
      "cve": "python/imports/imports-with-importlib.py:c6b36c25d7e767a77b76d5971a276ef7831f6518bce6823c38a6877cf9f2c0e3:B404",
      "severity": "Low",
      "confidence": "High",
      "scanner": {
        "id": "bandit",
        "name": "Bandit"
      },
      "location": {
        "file": "python/imports/imports-with-importlib.py",
        "start_line": 5,
        "end_line": 5,
        "dependency": {
          "package": {}
        }
      },
      "identifiers": [
        {
          "type": "bandit_test_id",
          "name": "Bandit Test ID B404",
          "value": "B404"
        }
      ]
    },
    {
      "category": "sast",
      "message": "Consider possible security implications associated with subprocess module.",
      "cve": "python/imports/imports.py:8de9bc98029d212db530785a5f6780cfa663548746ff228ab8fa96c5bb82f089:B404",
      "severity": "Low",
      "confidence": "High",
      "scanner": {
        "id": "bandit",
        "name": "Bandit"
      },
      "location": {
        "file": "python/imports/imports.py",
        "start_line": 4,
        "end_line": 4,
        "dependency": {
          "package": {}
        }
      },
      "identifiers": [
        {
          "type": "bandit_test_id",
          "name": "Bandit Test ID B404",
          "value": "B404"
        }
      ]
    },
    {
      "category": "sast",
      "message": "Consider possible security implications associated with pickle module.",
      "cve": "python/imports/imports.py:af58d07f6ad519ef5287fcae65bf1a6999448a1a3a8bc1ac2a11daa80d0b96bf:B403",
      "severity": "Low",
      "confidence": "High",
      "scanner": {
        "id": "bandit",
        "name": "Bandit"
      },
      "location": {
        "file": "python/imports/imports.py",
        "start_line": 2,
        "end_line": 2,
        "dependency": {
          "package": {}
        }
      },
      "identifiers": [
        {
          "type": "bandit_test_id",
          "name": "Bandit Test ID B403",
          "value": "B403"
        }
      ]
    },
    {
      "category": "sast",
      "name": "Unsafe Regular Expression",
      "message": "Unsafe Regular Expression",
      "description": "Potentially unsafe regular expressions. It may take a very long time to run.",
      "cve": "js/hello.html:023d9408225a8a1d2d8142434ccb3deffa50da7903e3f1a9e7ce0d4b941579e9:security/detect-unsafe-regex",
      "severity": "Unknown",
      "confidence": "Unknown",
      "scanner": {
        "id": "eslint",
        "name": "ESLint"
      },
      "location": {
        "file": "js/hello.html",
        "start_line": 8,
        "end_line": 8,
        "dependency": {
          "package": {}
        }
      },
      "identifiers": [
        {
          "type": "eslint_rule_id",
          "name": "ESLint rule ID security/detect-unsafe-regex",
          "value": "security/detect-unsafe-regex",
          "url": "https://github.com/nodesecurity/eslint-plugin-security#detect-unsafe-regex"
        }
      ]
    },
    {
      "category": "sast",
      "name": "eval with argument of type Identifier",
      "message": "eval with argument of type Identifier",
      "description": "eval() used with a variable. This can lead to command injection.",
      "cve": "js/hello.html:1ec42957a56130bbe6bc2a6328755a5a94ac16d93814a6955a0282091f8fab39:security/detect-eval-with-expression",
      "severity": "Unknown",
      "confidence": "Unknown",
      "scanner": {
        "id": "eslint",
        "name": "ESLint"
      },
      "location": {
        "file": "js/hello.html",
        "start_line": 15,
        "end_line": 15,
        "dependency": {
          "package": {}
        }
      },
      "identifiers": [
        {
          "type": "eslint_rule_id",
          "name": "ESLint rule ID security/detect-eval-with-expression",
          "value": "security/detect-eval-with-expression",
          "url": "https://github.com/nodesecurity/eslint-plugin-security#detect-eval-with-expression"
        }
      ]
    },
    {
      "category": "sast",
      "name": "Potential timing attack, right side: true",
      "message": "Potential timing attack, right side: true",
      "description": "Insecure comparisons (==, !=, !== and ===), which check input sequentially. This could lead to timing attacks on your application.",
      "cve": "js/hello.html:a53854dbd0609f06a59f4f8b5a14d7a3a43072df3e2cacee9ea9eee4cacced10:security/detect-possible-timing-attacks",
      "severity": "Unknown",
      "confidence": "Unknown",
      "scanner": {
        "id": "eslint",
        "name": "ESLint"
      },
      "location": {
        "file": "js/hello.html",
        "start_line": 52,
        "end_line": 54,
        "dependency": {
          "package": {}
        }
      },
      "identifiers": [
        {
          "type": "eslint_rule_id",
          "name": "ESLint rule ID security/detect-possible-timing-attacks",
          "value": "security/detect-possible-timing-attacks",
          "url": "https://github.com/nodesecurity/eslint-plugin-security#detect-possible-timing-attacks"
        }
      ]
    },
    {
      "category": "sast",
      "name": "Generic Object Injection Sink",
      "message": "Generic Object Injection Sink",
      "description": "Bracket object notation with user input is present, this might allow an attacker to access all properties of the object and even it's prototype, leading to possible code execution.",
      "cve": "js/hello.html:c0c7b09a326468ca1f53a4a9d1241c2f69957cfbd5806f41cc325ebe01f12140:security/detect-object-injection",
      "severity": "Unknown",
      "confidence": "Unknown",
      "scanner": {
        "id": "eslint",
        "name": "ESLint"
      },
      "location": {
        "file": "js/hello.html",
        "start_line": 30,
        "end_line": 30,
        "dependency": {
          "package": {}
        }
      },
      "identifiers": [
        {
          "type": "eslint_rule_id",
          "name": "ESLint rule ID security/detect-object-injection",
          "value": "security/detect-object-injection",
          "url": "https://github.com/nodesecurity/eslint-plugin-security#detect-object-injection"
        }
      ]
    },
    {
      "category": "sast",
      "name": "Found non-literal argument to RegExp Constructor",
      "message": "Found non-literal argument to RegExp Constructor",
      "description": "RegExp() called with a variable, this might allow an attacker to DOS your application with a long-running regular expression.",
      "cve": "js/hello.html:fd35d502035abfc361798528e022e175bf7c9ad47cc8bb29f0574d2b8aa012ca:security/detect-non-literal-regexp",
      "severity": "Unknown",
      "confidence": "Unknown",
      "scanner": {
        "id": "eslint",
        "name": "ESLint"
      },
      "location": {
        "file": "js/hello.html",
        "start_line": 19,
        "end_line": 19,
        "dependency": {
          "package": {}
        }
      },
      "identifiers": [
        {
          "type": "eslint_rule_id",
          "name": "ESLint rule ID security/detect-non-literal-regexp",
          "value": "security/detect-non-literal-regexp",
          "url": "https://github.com/nodesecurity/eslint-plugin-security#detect-non-literal-regexp"
        }
      ]
    },
    {
      "category": "sast",
      "name": "eval with argument of type Identifier",
      "message": "eval with argument of type Identifier",
      "description": "eval() used with a variable. This can lead to command injection.",
      "cve": "js/subfolder/world.js:e3b0c44298fc1c149afbf4c8996fb92427ae41e4649b934ca495991b7852b855:security/detect-eval-with-expression",
      "severity": "Unknown",
      "confidence": "Unknown",
      "scanner": {
        "id": "eslint",
        "name": "ESLint"
      },
      "location": {
        "file": "js/subfolder/world.js",
        "start_line": 10,
        "end_line": 10,
        "dependency": {
          "package": {}
        }
      },
      "identifiers": [
        {
          "type": "eslint_rule_id",
          "name": "ESLint rule ID security/detect-eval-with-expression",
          "value": "security/detect-eval-with-expression",
          "url": "https://github.com/nodesecurity/eslint-plugin-security#detect-eval-with-expression"
        }
      ]
    },
    {
      "category": "sast",
      "name": "Found non-literal argument to RegExp Constructor",
      "message": "Found non-literal argument to RegExp Constructor",
      "description": "RegExp() called with a variable, this might allow an attacker to DOS your application with a long-running regular expression.",
      "cve": "js/subfolder/world.js:e3b0c44298fc1c149afbf4c8996fb92427ae41e4649b934ca495991b7852b855:security/detect-non-literal-regexp",
      "severity": "Unknown",
      "confidence": "Unknown",
      "scanner": {
        "id": "eslint",
        "name": "ESLint"
      },
      "location": {
        "file": "js/subfolder/world.js",
        "start_line": 14,
        "end_line": 14,
        "dependency": {
          "package": {}
        }
      },
      "identifiers": [
        {
          "type": "eslint_rule_id",
          "name": "ESLint rule ID security/detect-non-literal-regexp",
          "value": "security/detect-non-literal-regexp",
          "url": "https://github.com/nodesecurity/eslint-plugin-security#detect-non-literal-regexp"
        }
      ]
    },
    {
      "category": "sast",
      "name": "Generic Object Injection Sink",
      "message": "Generic Object Injection Sink",
      "description": "Bracket object notation with user input is present, this might allow an attacker to access all properties of the object and even it's prototype, leading to possible code execution.",
      "cve": "js/subfolder/world.js:e3b0c44298fc1c149afbf4c8996fb92427ae41e4649b934ca495991b7852b855:security/detect-object-injection",
      "severity": "Unknown",
      "confidence": "Unknown",
      "scanner": {
        "id": "eslint",
        "name": "ESLint"
      },
      "location": {
        "file": "js/subfolder/world.js",
        "start_line": 25,
        "end_line": 25,
        "dependency": {
          "package": {}
        }
      },
      "identifiers": [
        {
          "type": "eslint_rule_id",
          "name": "ESLint rule ID security/detect-object-injection",
          "value": "security/detect-object-injection",
          "url": "https://github.com/nodesecurity/eslint-plugin-security#detect-object-injection"
        }
      ]
    },
    {
      "category": "sast",
      "name": "Potential timing attack, right side: true",
      "message": "Potential timing attack, right side: true",
      "description": "Insecure comparisons (==, !=, !== and ===), which check input sequentially. This could lead to timing attacks on your application.",
      "cve": "js/subfolder/world.js:e3b0c44298fc1c149afbf4c8996fb92427ae41e4649b934ca495991b7852b855:security/detect-possible-timing-attacks",
      "severity": "Unknown",
      "confidence": "Unknown",
      "scanner": {
        "id": "eslint",
        "name": "ESLint"
      },
      "location": {
        "file": "js/subfolder/world.js",
        "start_line": 47,
        "end_line": 49,
        "dependency": {
          "package": {}
        }
      },
      "identifiers": [
        {
          "type": "eslint_rule_id",
          "name": "ESLint rule ID security/detect-possible-timing-attacks",
          "value": "security/detect-possible-timing-attacks",
          "url": "https://github.com/nodesecurity/eslint-plugin-security#detect-possible-timing-attacks"
        }
      ]
    },
    {
      "category": "sast",
      "name": "Unsafe Regular Expression",
      "message": "Unsafe Regular Expression",
      "description": "Potentially unsafe regular expressions. It may take a very long time to run.",
      "cve": "js/subfolder/world.js:e3b0c44298fc1c149afbf4c8996fb92427ae41e4649b934ca495991b7852b855:security/detect-unsafe-regex",
      "severity": "Unknown",
      "confidence": "Unknown",
      "scanner": {
        "id": "eslint",
        "name": "ESLint"
      },
      "location": {
        "file": "js/subfolder/world.js",
        "start_line": 3,
        "end_line": 3,
        "dependency": {
          "package": {}
        }
      },
      "identifiers": [
        {
          "type": "eslint_rule_id",
          "name": "ESLint rule ID security/detect-unsafe-regex",
          "value": "security/detect-unsafe-regex",
          "url": "https://github.com/nodesecurity/eslint-plugin-security#detect-unsafe-regex"
        }
      ]
    },
    {
      "category": "sast",
      "name": "Unsafe parameter value in link_to href",
      "message": "Unsafe parameter value in link_to href",
      "cve": "03fcddff701f15c976a229c2a814c817f81463b733c6d4925253488879d907e3",
      "confidence": "High",
      "scanner": {
        "id": "brakeman",
        "name": "Brakeman"
      },
      "location": {
        "file": "rails5/app/views/users/show.html.erb",
        "start_line": 7,
        "dependency": {
          "package": {}
        }
      },
      "identifiers": [
        {
          "type": "brakeman_warning_code",
          "name": "Brakeman Warning Code 4",
          "value": "4",
          "url": "https://brakemanscanner.org/docs/warning_types/link_to_href"
        }
      ]
    },
    {
      "category": "sast",
      "name": "Parameters should be whitelisted for mass assignment",
      "message": "Parameters should be whitelisted for mass assignment",
      "cve": "046f3c6cc9a55464d21837b583c672c26532cd46c1f719853a1a15b790baf8ea",
      "confidence": "High",
      "scanner": {
        "id": "brakeman",
        "name": "Brakeman"
      },
      "location": {
        "file": "rails5/app/controllers/users_controller.rb",
        "start_line": 78,
        "class": "UsersController",
        "method": "ruby_230",
        "dependency": {
          "package": {}
        }
      },
      "identifiers": [
        {
          "type": "brakeman_warning_code",
          "name": "Brakeman Warning Code 70",
          "value": "70",
          "url": "https://brakemanscanner.org/docs/warning_types/mass_assignment/"
        }
      ]
    },
    {
      "category": "sast",
      "name": "Unescaped parameter value",
      "message": "Unescaped parameter value",
      "cve": "0d980d69bd0158cfa6a92c12bc49294fe32e9862a758e11fe3cf9e03b6c50489",
      "confidence": "High",
      "scanner": {
        "id": "brakeman",
        "name": "Brakeman"
      },
      "location": {
        "file": "rails5/app/views/users/sanitizing.html.erb",
        "start_line": 3,
        "dependency": {
          "package": {}
        }
      },
      "identifiers": [
        {
          "type": "brakeman_warning_code",
          "name": "Brakeman Warning Code 2",
          "value": "2",
          "url": "https://brakemanscanner.org/docs/warning_types/cross_site_scripting"
        }
      ]
    },
    {
      "category": "sast",
      "name": "User controlled method execution",
      "message": "User controlled method execution",
      "cve": "21c9eef1c001e48a0bfedfa11ff0f9d96b0c106f1016218712dabc088b2e69b6",
      "confidence": "High",
      "scanner": {
        "id": "brakeman",
        "name": "Brakeman"
      },
      "location": {
        "file": "rails5/app/controllers/users_controller.rb",
        "start_line": 76,
        "class": "UsersController",
        "method": "ruby_230",
        "dependency": {
          "package": {}
        }
      },
      "identifiers": [
        {
          "type": "brakeman_warning_code",
          "name": "Brakeman Warning Code 23",
          "value": "23",
          "url": "https://brakemanscanner.org/docs/warning_types/dangerous_send/"
        }
      ]
    },
    {
      "category": "sast",
      "name": "Unescaped parameter value",
      "message": "Unescaped parameter value",
      "cve": "26948b197b886c81ed6e3cc668b811e6e2407bcd6d2df3cf1ae79e33dccc4bb0",
      "confidence": "High",
      "scanner": {
        "id": "brakeman",
        "name": "Brakeman"
      },
      "location": {
        "file": "rails5/app/controllers/widget_controller.rb",
        "start_line": 15,
        "dependency": {
          "package": {}
        }
      },
      "identifiers": [
        {
          "type": "brakeman_warning_code",
          "name": "Brakeman Warning Code 2",
          "value": "2",
          "url": "https://brakemanscanner.org/docs/warning_types/cross-site_scripting/"
        }
      ]
    },
    {
      "category": "sast",
      "name": "Unescaped parameter value",
      "message": "Unescaped parameter value",
      "cve": "26b8b0ad586712d41ac6877e2292c6da7aa4760078add7fd23edf5b7a1bcb699",
      "confidence": "High",
      "scanner": {
        "id": "brakeman",
        "name": "Brakeman"
      },
      "location": {
        "file": "rails5/app/views/widget/show.html.erb",
        "start_line": 1,
        "dependency": {
          "package": {}
        }
      },
      "identifiers": [
        {
          "type": "brakeman_warning_code",
          "name": "Brakeman Warning Code 2",
          "value": "2",
          "url": "https://brakemanscanner.org/docs/warning_types/cross-site_scripting/"
        }
      ]
    },
    {
      "category": "sast",
      "name": "Potentially dangerous key allowed for mass assignment",
      "message": "Potentially dangerous key allowed for mass assignment",
      "cve": "615627822842388859734b6124bf99e0db057a2572f35c92ff42b5ad46f4415f",
      "confidence": "High",
      "scanner": {
        "id": "brakeman",
        "name": "Brakeman"
      },
      "location": {
        "file": "rails5/app/controllers/widget_controller.rb",
        "start_line": 90,
        "class": "WidgetController",
        "method": "dangerous_permits",
        "dependency": {
          "package": {}
        }
      },
      "identifiers": [
        {
          "type": "brakeman_warning_code",
          "name": "Brakeman Warning Code 105",
          "value": "105",
          "url": "https://brakemanscanner.org/docs/warning_types/mass_assignment/"
        }
      ]
    },
    {
      "category": "sast",
      "name": "Possible SQL injection",
      "message": "Possible SQL injection",
      "cve": "672fb59ead203af7b429e4efa722101b9246e60334470daa7c07a62078974350",
      "confidence": "High",
      "scanner": {
        "id": "brakeman",
        "name": "Brakeman"
      },
      "location": {
        "file": "rails5/app/controllers/users_controller.rb",
        "start_line": 97,
        "class": "UsersController",
        "method": "arel_sql",
        "dependency": {
          "package": {}
        }
      },
      "identifiers": [
        {
          "type": "brakeman_warning_code",
          "name": "Brakeman Warning Code 0",
          "value": "0",
          "url": "https://brakemanscanner.org/docs/warning_types/sql_injection/"
        }
      ]
    },
    {
      "category": "sast",
      "name": "Unescaped model attribute",
      "message": "Unescaped model attribute",
      "cve": "7aec2bbe8fa40f49f08b70dfc8c0b6afdc9be252eb0459a3d5313bc904d9ec77",
      "confidence": "High",
      "scanner": {
        "id": "brakeman",
        "name": "Brakeman"
      },
      "location": {
        "file": "rails5/app/views/layouts/users.html.erb",
        "start_line": 2,
        "dependency": {
          "package": {}
        }
      },
      "identifiers": [
        {
          "type": "brakeman_warning_code",
          "name": "Brakeman Warning Code 2",
          "value": "2",
          "url": "https://brakemanscanner.org/docs/warning_types/cross_site_scripting"
        }
      ]
    },
    {
      "category": "sast",
      "name": "User input in eval",
      "message": "User input in eval",
      "cve": "7fe3142d1d11b7118463e45a82b4b7a2b5b5bac95cf8904050c101fae16b8168",
      "confidence": "High",
      "scanner": {
        "id": "brakeman",
        "name": "Brakeman"
      },
      "location": {
        "file": "rails5/app/models/user.rb",
        "start_line": 3,
        "class": "User",
        "method": "User.evaluate_user_input",
        "dependency": {
          "package": {}
        }
      },
      "identifiers": [
        {
          "type": "brakeman_warning_code",
          "name": "Brakeman Warning Code 13",
          "value": "13",
          "url": "https://brakemanscanner.org/docs/warning_types/dangerous_eval/"
        }
      ]
    },
    {
      "category": "sast",
      "name": "Unescaped cookie value rendered inline",
      "message": "Unescaped cookie value rendered inline",
      "cve": "8badd2e174576484eca32fb6015d903700d6694e9b3486be64d737aa215a36ea",
      "confidence": "High",
      "scanner": {
        "id": "brakeman",
        "name": "Brakeman"
      },
      "location": {
        "file": "rails5/app/controllers/widget_controller.rb",
        "start_line": 86,
        "class": "WidgetController",
        "method": "render_cookies",
        "dependency": {
          "package": {}
        }
      },
      "identifiers": [
        {
          "type": "brakeman_warning_code",
          "name": "Brakeman Warning Code 84",
          "value": "84",
          "url": "https://brakemanscanner.org/docs/warning_types/cross-site_scripting/"
        }
      ]
    },
    {
      "category": "sast",
      "name": "Possible unprotected redirect",
      "message": "Possible unprotected redirect",
      "cve": "9187972b879413888afcc0f94c02d9e5c47d56ecb15add404d6706f95efc08ee",
      "confidence": "High",
      "scanner": {
        "id": "brakeman",
        "name": "Brakeman"
      },
      "location": {
        "file": "rails5/app/controllers/mixed_controller.rb",
        "start_line": 26,
        "class": "BaseController",
        "method": "redirect_to_strong_params",
        "dependency": {
          "package": {}
        }
      },
      "identifiers": [
        {
          "type": "brakeman_warning_code",
          "name": "Brakeman Warning Code 18",
          "value": "18",
          "url": "https://brakemanscanner.org/docs/warning_types/redirect/"
        }
      ]
    },
    {
      "category": "sast",
      "name": "Unescaped parameter value in content_tag",
      "message": "Unescaped parameter value in content_tag",
      "cve": "956e3e4f494316c5f30cde009086fd7be0bddf80d85901cdb8e3d7b7d76d219b",
      "confidence": "High",
      "scanner": {
        "id": "brakeman",
        "name": "Brakeman"
      },
      "location": {
        "file": "rails5/app/views/widget/content_tag.html.erb",
        "start_line": 1,
        "dependency": {
          "package": {}
        }
      },
      "identifiers": [
        {
          "type": "brakeman_warning_code",
          "name": "Brakeman Warning Code 53",
          "value": "53",
          "url": "https://brakemanscanner.org/docs/warning_types/content_tag"
        }
      ]
    },
    {
      "category": "sast",
      "name": "XSS - Reflected Cross Site Scripting",
      "message": "XSS - Reflected Cross Site Scripting",
      "description": "Untrusted User Input in Response will result in Reflected Cross Site Scripting Vulnerability",
      "cve": "XSS - Reflected Cross Site Scripting:  res.send('requested ' + req.params.sub);",
      "scanner": {
        "id": "nodejs_scan",
        "name": "NodeJsScan"
      },
      "location": {
        "file": "express/index.js",
        "start_line": 28,
        "dependency": {
          "package": {}
        }
      },
      "identifiers": [
        {
          "type": "node_js_scan_id",
          "name": "NodeJsScan ID: 23",
          "value": "23"
        }
      ]
    },
    {
      "category": "sast",
      "name": "Unescaped parameter value in content_tag",
      "message": "Unescaped parameter value in content_tag",
      "cve": "a1ca8c0e91d159ddc920d3c9efc6942f6aa697c519b299b756810ac1ca977763",
      "confidence": "Medium",
      "scanner": {
        "id": "brakeman",
        "name": "Brakeman"
      },
      "location": {
        "file": "rails5/app/views/widget/content_tag.html.erb",
        "start_line": 3,
        "dependency": {
          "package": {}
        }
      },
      "identifiers": [
        {
          "type": "brakeman_warning_code",
          "name": "Brakeman Warning Code 53",
          "value": "53",
          "url": "https://brakemanscanner.org/docs/warning_types/content_tag"
        }
      ]
    },
    {
      "category": "sast",
      "message": "Statically-sized arrays can be improperly restricted, leading to potential overflows or other issues (CWE-119!/CWE-120)",
      "cve": "c/subdir/utils.c:b466873101951fe96e1332f6728eb7010acbbd5dfc3b65d7d53571d091a06d9e:CWE-119!/CWE-120",
      "confidence": "Low",
      "solution": "Perform bounds checking, use functions that limit length, or ensure that the size is larger than the maximum possible length",
      "scanner": {
        "id": "flawfinder",
        "name": "Flawfinder"
      },
      "location": {
        "file": "c/subdir/utils.c",
        "start_line": 4,
        "dependency": {
          "package": {}
        }
      },
      "identifiers": [
        {
          "type": "flawfinder_func_name",
          "name": "Flawfinder - char",
          "value": "char"
        },
        {
          "type": "cwe",
          "name": "CWE-119",
          "value": "119",
          "url": "https://cwe.mitre.org/data/definitions/119.html"
        },
        {
          "type": "cwe",
          "name": "CWE-120",
          "value": "120",
          "url": "https://cwe.mitre.org/data/definitions/120.html"
        }
      ]
    },
    {
      "category": "sast",
      "message": "Check when opening files - can an attacker redirect it (via symlinks), force the opening of special file type (e.g., device files), move things around to create a race condition, control its ancestors, or change its contents? (CWE-362)",
      "cve": "c/subdir/utils.c:bab681140fcc8fc3085b6bba74081b44ea145c1c98b5e70cf19ace2417d30770:CWE-362",
      "confidence": "Low",
      "scanner": {
        "id": "flawfinder",
        "name": "Flawfinder"
      },
      "location": {
        "file": "c/subdir/utils.c",
        "start_line": 8,
        "dependency": {
          "package": {}
        }
      },
      "identifiers": [
        {
          "type": "flawfinder_func_name",
          "name": "Flawfinder - fopen",
          "value": "fopen"
        },
        {
          "type": "cwe",
          "name": "CWE-362",
          "value": "362",
          "url": "https://cwe.mitre.org/data/definitions/362.html"
        }
      ]
    },
    {
      "category": "sast",
      "message": "Does not check for buffer overflows when copying to destination [MS-banned] (CWE-120)",
      "cve": "cplusplus/src/hello.cpp:331c04062c4fe0c7c486f66f59e82ad146ab33cdd76ae757ca41f392d568cbd0:CWE-120",
      "confidence": "Low",
      "solution": "Consider using snprintf, strcpy_s, or strlcpy (warning: strncpy easily misused)",
      "scanner": {
        "id": "flawfinder",
        "name": "Flawfinder"
      },
      "location": {
        "file": "cplusplus/src/hello.cpp",
        "start_line": 7,
        "dependency": {
          "package": {}
        }
      },
      "identifiers": [
        {
          "type": "flawfinder_func_name",
          "name": "Flawfinder - strcpy",
          "value": "strcpy"
        },
        {
          "type": "cwe",
          "name": "CWE-120",
          "value": "120",
          "url": "https://cwe.mitre.org/data/definitions/120.html"
        }
      ]
    },
    {
      "category": "sast",
      "message": "Statically-sized arrays can be improperly restricted, leading to potential overflows or other issues (CWE-119!/CWE-120)",
      "cve": "cplusplus/src/hello.cpp:c8c6dd0afdae6814194cf0930b719f757ab7b379cf8f261e7f4f9f2f323a818a:CWE-119!/CWE-120",
      "confidence": "Low",
      "solution": "Perform bounds checking, use functions that limit length, or ensure that the size is larger than the maximum possible length",
      "scanner": {
        "id": "flawfinder",
        "name": "Flawfinder"
      },
      "location": {
        "file": "cplusplus/src/hello.cpp",
        "start_line": 6,
        "dependency": {
          "package": {}
        }
      },
      "identifiers": [
        {
          "type": "flawfinder_func_name",
          "name": "Flawfinder - char",
          "value": "char"
        },
        {
          "type": "cwe",
          "name": "CWE-119",
          "value": "119",
          "url": "https://cwe.mitre.org/data/definitions/119.html"
        },
        {
          "type": "cwe",
          "name": "CWE-120",
          "value": "120",
          "url": "https://cwe.mitre.org/data/definitions/120.html"
        }
      ]
    },
    {
      "category": "sast",
      "name": "Unescaped parameter value",
      "message": "Unescaped parameter value",
      "cve": "dbec030dda82f21c5ea860e38746de64a6f3b9c49508ae2db947759a753a386c",
      "confidence": "High",
      "scanner": {
        "id": "brakeman",
        "name": "Brakeman"
      },
      "location": {
        "file": "rails5/app/views/widget/no_html.haml",
        "start_line": 1,
        "dependency": {
          "package": {}
        }
      },
      "identifiers": [
        {
          "type": "brakeman_warning_code",
          "name": "Brakeman Warning Code 2",
          "value": "2",
          "url": "https://brakemanscanner.org/docs/warning_types/cross-site_scripting/"
        }
      ]
    },
    {
      "category": "sast",
      "name": "Weak random generator",
      "message": "Weak random generator",
      "cve": "dotnet/app/WeakRandom.cs:7:SCS0005",
      "scanner": {
        "id": "security_code_scan",
        "name": "Security Code Scan"
      },
      "location": {
        "file": "dotnet/app/WeakRandom.cs",
        "start_line": 7,
        "dependency": {
          "package": {}
        }
      },
      "identifiers": [
        {
          "type": "security_code_scan_rule_id",
          "name": "SCS0005",
          "value": "SCS0005",
          "url": "https://security-code-scan.github.io/#SCS0005"
        }
      ]
    },
    {
      "category": "sast",
      "name": "Unescaped parameter value",
      "message": "Unescaped parameter value",
      "cve": "e203c837d65aad6ab63e09c2487beabf478534f77f0c20e946a28a38826ca657",
      "confidence": "High",
      "scanner": {
        "id": "brakeman",
        "name": "Brakeman"
      },
      "location": {
        "file": "rails5/app/views/users/sanitizing.html.erb",
        "start_line": 1,
        "dependency": {
          "package": {}
        }
      },
      "identifiers": [
        {
          "type": "brakeman_warning_code",
          "name": "Brakeman Warning Code 2",
          "value": "2",
          "url": "https://brakemanscanner.org/docs/warning_types/cross_site_scripting"
        }
      ]
    },
    {
      "category": "sast",
      "name": "User input in eval",
      "message": "User input in eval",
      "cve": "e90f8e364e35ed2f6a56b4597e7de8945c836c75ef673006d960a380ecdf47e8",
      "confidence": "High",
      "scanner": {
        "id": "brakeman",
        "name": "Brakeman"
      },
      "location": {
        "file": "rails5/app/helpers/users_helper.rb",
        "start_line": 3,
        "class": "UsersHelper",
        "method": "bad_helper",
        "dependency": {
          "package": {}
        }
      },
      "identifiers": [
        {
          "type": "brakeman_warning_code",
          "name": "Brakeman Warning Code 13",
          "value": "13",
          "url": "https://brakemanscanner.org/docs/warning_types/dangerous_eval/"
        }
      ]
    },
    {
      "category": "sast",
      "name": "Unsafe reflection method constantize called with parameter value",
      "message": "Unsafe reflection method constantize called with parameter value",
      "cve": "ed9f1dea97ba2929a0107fce64c3b4aa66010961ebbef36e1d11428067095cb6",
      "confidence": "High",
      "scanner": {
        "id": "brakeman",
        "name": "Brakeman"
      },
      "location": {
        "file": "rails5/app/controllers/widget_controller.rb",
        "start_line": 7,
        "class": "WidgetController",
        "method": "dynamic_constant",
        "dependency": {
          "package": {}
        }
      },
      "identifiers": [
        {
          "type": "brakeman_warning_code",
          "name": "Brakeman Warning Code 24",
          "value": "24",
          "url": "https://brakemanscanner.org/docs/warning_types/remote_code_execution/"
        }
      ]
    },
    {
      "category": "sast",
      "name": "Possible SQL injection",
      "message": "Possible SQL injection",
      "cve": "fe0098fc5ab1051854573b487855f348bd9320c8eb5ae55302b4649d0147d7dd",
      "confidence": "High",
      "scanner": {
        "id": "brakeman",
        "name": "Brakeman"
      },
      "location": {
        "file": "rails5/lib/a_lib.rb",
        "start_line": 3,
        "class": "JustAClass",
        "method": "do_sql_stuff",
        "dependency": {
          "package": {}
        }
      },
      "identifiers": [
        {
          "type": "brakeman_warning_code",
          "name": "Brakeman Warning Code 0",
          "value": "0",
          "url": "https://brakemanscanner.org/docs/warning_types/sql_injection/"
        }
      ]
    }
  ],
  "remediations": []
}
